…
``` r
# dplyr table
library(ggplot2)

dis_shot <- dat%>%
  filter(shot_made_flag=="made shot") %>%
  select(shot_distance,shot_made_flag)%>%
  group_by(shot_distance) %>%
  summarize(made_shot=n())
dis_shot
```

    ## # A tibble: 35 x 2
    ##    shot_distance made_shot
    ##            <int>     <int>
    ##  1             0       344
    ##  2             1       262
    ##  3             2       151
    ##  4             3        31
    ##  5             4        23
    ##  6             5        12
    ##  7             6        19
    ##  8             7        17
    ##  9             8        19
    ## 10             9        17
    ## # ... with 25 more rows
…
